[ { "listTitle": "eng",
    "sections": [
      { "sectionTitle": "", "isExpandable": false, "isExpandedByDefault": true, "listEntries": [
        { "sourceText": "1984 Actionday", "href": "https://1984actionday.wordpress.com/", "linkText": "When will you fight back?" },
        { "sourceText": "Electronic Frontier Foundation", "href": "https://www.eff.org/sls", "linkText": "Street Level Surveillance" },
        { "sourceText": "Insecam", "href": "http://www.insecam.org/", "linkText": "World biggest online cameras directory" },
        { "sourceText": "No CCTV", "href": "http://www.no-cctv.org.uk/", "linkText": "Campaigning against camera surveillance in the UK & beyond" },
        { "sourceText": "Rocco and his brothers", "href": "http://www.roccoundseinebrueder.com/outdoor-detail/cctv/", "linkText": "CCTV" },
        { "sourceText": "Spy Blog", "href": "https://p10.secure.hostingprod.com/@spyblog.org.uk/ssl/spyblog/cctv-surveillance-cameras/", "linkText": "Category: CCTV surveillance cameras" },
        { "sourceText": "UnObserved", "href": "https://unobserved.org/", "linkText": "Map and find unobserved places" },
        { "sourceText": "Yale University", "href": "https://privacylab.yale.edu/", "linkText": "Privacy Lab" }
      ] },
      { "sectionTitle": "sect-2018", "isExpandable": true, "isExpandedByDefault": true, "listEntries": [
        { "sourceText": "2018-07-10 | EFF", "href": "https://www.eff.org/deeplinks/2018/07/california-shopping-centers-are-spying-ice-contractor", "linkText": "California Shopping Centers Are Spying for an ICE Contractor" },
        { "sourceText": "2018-05-22 | ACLU", "href": "https://www.aclu.org/blog/privacy-technology/surveillance-technologies/amazon-teams-government-deploy-dangerous-new", "linkText": "Amazon Teams Up With Government to Deploy Dangerous New Facial Recognition Technology" },
        { "sourceText": "2018-05-22 | The Verge", "href": "https://www.theverge.com/2018/5/22/17379968/amazon-rekognition-facial-recognition-surveillance-aclu", "linkText": "Amazon is selling police departments a real-time facial recognition system" },
        { "sourceText": "2018-05-15 | BBC News", "href": "http://www.bbc.co.uk/news/technology-44089161", "linkText": "Face recognition police tools 'staggeringly inaccurate'" },
        { "sourceText": "2018-05-05 | The Guardian", "href": "https://www.theguardian.com/uk-news/2018/may/05/welsh-police-wrongly-identify-thousands-as-potential-criminals", "linkText": "Welsh police wrongly identify thousands as potential criminals" },
        { "sourceText": "2018-04-20 | TechCrunch", "href": "https://techcrunch.com/2018/04/20/just-say-no/", "linkText": "Facebook has auto-enrolled users into a facial recognition test in Europe" },
        { "sourceText": "2018-04-13 | BBC News", "href": "http://www.bbc.co.uk/news/world-asia-china-43751276", "linkText": "China man caught by facial recognition at pop concert" },
        { "sourceText": "2018-02-08 | Hong Kong Free Press", "href": "https://www.hongkongfp.com/2018/02/08/black-mirror-technology-chinese-police-don-high-tech-glasses-nab-suspects/", "linkText": "‘Black Mirror’ technology: Chinese police don high-tech glasses to nab suspects" },
        { "sourceText": "2018-02-05 | The Atlantic", "href": "https://www.theatlantic.com/international/archive/2018/02/china-surveillance/552203/", "linkText": "China's Surveillance State Should Scare Everyone" },
        { "sourceText": "2018-01-25 | The Verge", "href": "https://www.theverge.com/2018/1/23/16907238/artificial-intelligence-surveillance-cameras-security", "linkText": "AI is going to supercharge surveillance" },
        { "sourceText": "2018-01-07 | The Washington Post", "href": "https://www.washingtonpost.com/news/world/wp/2018/01/07/feature/in-china-facial-recognition-is-sharp-end-of-a-drive-for-total-surveillance/", "linkText": "In China, facial recognition is sharp end of big data drive for total surveillance" }
      ] },
      { "sectionTitle": "sect-2017", "isExpandable": true, "isExpandedByDefault": false, "listEntries": [
        { "sourceText": "2017-12-10 | BBC", "href": "http://www.bbc.com/news/av/world-asia-china-42248056/in-your-face-china-s-all-seeing-state", "linkText": "In Your Face: China’s all-seeing state" },
        { "sourceText": "2017-06-06 | Ars Technica", "href": "https://arstechnica.com/tech-policy/2017/06/police-automatic-face-recognition/", "linkText": "UK police arrest man via automatic face-recognition tech" },
        { "sourceText": "2017-02-24 | Human Rights Council", "href": "https://assets.documentcloud.org/documents/3514983/UN-special-rapporteur-on-the-right-to-privacy.pdf", "linkText": "Report of the Special Rapporteur on the right to privacy, Joseph A. Cannataci" },
        { "sourceText": "2017-02-16 | Vocativ", "href": "http://www.vocativ.com/402771/ai-body-cams-cops-google/", "linkText": "AI-Powered Body Cams Give Cops The Power To Google Everything They See" }
      ] },
      { "sectionTitle": "sect-2016", "isExpandable": true, "isExpandedByDefault": false, "listEntries": [
        { "sourceText": "2016-10-18 | WIRED", "href": "https://www.wired.com/2016/10/cops-database-117m-faces-youre-probably/", "linkText": "Cops Have a Database of 117M Faces. You’re Probably in It" },
        { "sourceText": "2016-10-13 | The Intercept_", "href": "https://theintercept.com/2016/10/13/how-a-facial-recognition-mismatch-can-ruin-your-life/", "linkText": "How a Facial Recognition Mismatch Can Ruin Your Life" },
        { "sourceText": "2016-06-27 | sucuri BLOG", "href": "https://blog.sucuri.net/2016/06/large-cctv-botnet-leveraged-ddos-attacks.html", "linkText": "Large CCTV Botnet Leveraged in DDoS Attacks" }
      ] },
      { "sectionTitle": "sect-2015", "isExpandable": true, "isExpandedByDefault": false, "listEntries": [
        { "sourceText": "2015-12-29 | 32C3", "href": "https://events.ccc.de/congress/2015/Fahrplan/events/7374.html", "linkText": "The architecture of a street level panopticum" }
      ] }
    ]
  },
  { "listTitle": "fra",
    "sections": [
      { "sectionTitle": "", "isExpandable": false, "isExpandedByDefault": true, "listEntries": [
        { "sourceText": "BUG BROTHER", "href": "http://bugbrother.blog.lemonde.fr/", "linkText": "Qui surveillera les surveillants ?" },
        { "sourceText": "LA QUADRATURE DU NET", "href": "https://www.laquadrature.net/fr", "linkText": "Internet & Libertés" },
        { "sourceText": "SOUS-SURVEILLANCE.NET", "href": "https://www.sous-surveillance.net/", "linkText": "Carte — Revue de presse — Projet" }
      ] }
    ]
  },
  { "listTitle": "ger",
    "sections": [
      { "sectionTitle": "", "isExpandable": false, "isExpandedByDefault": true, "listEntries": [
        { "sourceText": "#ENDSTATION", "href": "https://endstation.jetzt/", "linkText": "Aktionsbündnis" },
        { "sourceText": "#wastun", "href": "https://wastun.jetzt/", "linkText": "gegen Überwachung!" },
        { "sourceText": "AK Vorrat", "href": "http://wiki.vorratsdatenspeicherung.de/Arbeitsgruppe_Video%C3%BCberwachung", "linkText": "Arbeitsgruppe Videoüberwachung" },
        { "sourceText": "AK Vorrat", "href": "http://wiki.vorratsdatenspeicherung.de/images/Folder_cctv.pdf", "linkText": "Infobroschüre: Videoüberwachung? Sicherheit geht anders!" },
        { "sourceText": "AK Vorrat, Ortsgruppe Hannover", "href": "http://wiki.vorratsdatenspeicherung.de/Ortsgruppen/Hannover/Videoueberwachung_in_Hannover", "linkText": "Videoüberwachung in Hannover" },
        { "sourceText": "AKTION FREIHEIT STATT ANGST", "href": "https://www.aktion-freiheitstattangst.org/", "linkText": "Aktion Freiheit statt Angst e.V." },
        { "sourceText": "Benjamin J. Kees", "href": "http://algoropticon.de/", "linkText": "Algorithmisches Panopticon" },
        { "sourceText": "Daten-Speicherung.de", "href": "http://www.daten-speicherung.de/index.php/category/videoueberwachung/", "linkText": "Archiv zur Kategorie Videoüberwachung" },
        { "sourceText": "dieDatenschützer Rhein-Main", "href": "https://ddrm.de/category/videouberwachung-2/", "linkText": "Kategoriearchiv: Videoüberwachung" },
        { "sourceText": "EPICENTER.WORKS", "href": "https://überwachungspaket.at/", "linkText": "Stoppt das Überwachungspaket!" },
        { "sourceText": "Frag den Staat", "href": "https://fragdenstaat.de/anfrage/informationen-zum-projekt-sicherheitsbahnhof-berlin-sudkreuz/", "linkText": "Informationen zum „Projekt Sicherheitsbahnhof“ Berlin Südkreuz" },
        { "sourceText": "Frag den Staat", "href": "https://fragdenstaat.de/anfrage/datenschutzkonzept-fur-videouberwachung-am-bahnhof-berlin-sudkreuz/", "linkText": "Datenschutzkonzept für Videoüberwachung am Bahnhof Berlin Südkreuz" },
        { "sourceText": "Juvenal", "href": "https://juvenal.org/", "linkText": "Sed quis custodiet ipsos custodes?" },
        { "sourceText": "Kassel-Watch-Log", "href": "https://www.ks-watch.de/", "linkText": "Videoüberwachung im öffentlichen Raum Kassel" },
        { "sourceText": "Rocco und seine Brüder", "href": "http://www.roccoundseinebrueder.com/outdoor-detail/cctv/", "linkText": "CCTV" },
        { "sourceText": "WeAct - Campact", "href": "https://weact.campact.de/petitions/keine-big-brother-uberwachung-im-supermarkt", "linkText": "Keine Gesichtsanalyse im Supermarkt!" }
      ] },
      { "sectionTitle": "sect-2018", "isExpandable": true, "isExpandedByDefault": true, "listEntries": [
        { "sourceText": "2018-09-25 | heise online", "href": "https://www.heise.de/security/meldung/Sicherheitspatch-Angreifer-koennten-Videoueberwachungssystem-von-Cisco-uebernehmen-4172491.html", "linkText": "Sicherheitspatch: Angreifer könnten Videoüberwachungssystem von Cisco übernehmen" },
        { "sourceText": "2018-09-24 | netzpolitik.org", "href": "https://netzpolitik.org/2018/gesichtserkennung-aktivisten-manipulieren-biometrisches-passbild/", "linkText": "Gesichtserkennung: Aktivisten manipulieren biometrisches Passbild" },
        { "sourceText": "2018-09-19 | heise online", "href": "https://www.heise.de/security/meldung/Peekaboo-Hunderttausende-Ueberwachungskameras-angreifbar-4168044.html", "linkText": "Peekaboo: Hunderttausende Überwachungskameras angreifbar" },
        { "sourceText": "2018-08-31 | heise online", "href": "https://www.heise.de/newsticker/meldung/G20-Krawalle-Datenschuetzer-ruegt-Fahndung-per-automatisierter-Gesichtserkennung-4152533.html", "linkText": "G20-Krawalle: Datenschützer rügt Fahndung per automatisierter Gesichtserkennung" },
        { "sourceText": "2018-08-31 | netzpolitik.org", "href": "https://netzpolitik.org/2018/kritik-an-g20-gesichtserkennung-als-neue-dimension-staatlicher-ermittlungs-und-kontrolloptionen/", "linkText": "Kritik an G20-Gesichtserkennung als „neue Dimension staatlicher Ermittlungs- und Kontrolloptionen“" },
        { "sourceText": "2018-08-30 | netzpolitik.org", "href": "https://netzpolitik.org/2018/videoueberwachung-in-bahnhoefen-13-milliarden-fuer-ein-paar-kameras/", "linkText": "Videoüberwachung in Bahnhöfen: 13 Milliarden für ein paar Kameras" },
        { "sourceText": "2018-08-27 | netzpolitik.org", "href": "https://netzpolitik.org/2018/videoueberwachung-fussfesseln-staatstrojaner-netzpolitik-org-podcast-zum-polizeigesetz-niedersachsen/", "linkText": "Videoüberwachung, Fußfesseln, Staatstrojaner: netzpolitik.org-Podcast zum Polizeigesetz Niedersachsen" },
        { "sourceText": "2018-08-15 | heise online", "href": "https://www.heise.de/newsticker/meldung/G20-Randale-Biometrische-Gesichtserkennung-bringt-kaum-Ergebnisse-4138252.html", "linkText": "G20-Randale: Biometrische Gesichtserkennung bringt kaum Ergebnisse" },
        { "sourceText": "2018-08-15 | netzpolitik.org", "href": "https://netzpolitik.org/2018/soko-schwarzer-block-hamburger-datenschutzbeauftragter-haelt-gesichtserkennung-fuer-rechtswidrig/", "linkText": "Soko „Schwarzer Block“: Hamburger Datenschutzbeauftragter hält Gesichtserkennung für rechtswidrig" },
        { "sourceText": "2018-08-09 | netzpolitik.org", "href": "https://netzpolitik.org/2018/interview-zu-biometrischer-ueberwachung-seehofer-soll-die-ergebnisse-des-tests-am-suedkreuz-transparent-machen/", "linkText": "Interview zu biometrischer Überwachung: Seehofer soll die Ergebnisse des Tests am Südkreuz transparent machen" },
        { "sourceText": "2018-08-06 | netzpolitik.org", "href": "https://netzpolitik.org/2018/hamburg-polizei-will-software-zur-gesichtserkennung-dauerhaft-einsetzen/", "linkText": "Hamburg: Polizei will Software zur Gesichtserkennung dauerhaft einsetzen" },
        { "sourceText": "2018-07-28 | netzpolitik.org", "href": "https://netzpolitik.org/2018/berliner-ueberwachungsbahnhof-will-auffaelliges-verhalten-erkennen/", "linkText": "Berliner Überwachungsbahnhof will jetzt auffälliges Verhalten erkennen" },
        { "sourceText": "2018-07-26 | heise online", "href": "https://www.heise.de/newsticker/meldung/Gesichtserkennung-Amazon-verwechselt-Abgeordnete-mit-Gangstern-4121172.html", "linkText": "Gesichtserkennung: Amazon verwechselt Abgeordnete mit Gangstern" },
        { "sourceText": "2018-07-26 | netzpolitik.org", "href": "https://netzpolitik.org/2018/gesichtserkennung-von-amazon-verwechselte-us-abgeordnete-mit-verdaechtigen/", "linkText": "Gesichtserkennung von Amazon verwechselte US-Abgeordnete mit Verdächtigen" },
        { "sourceText": "2018-07-25 | heise online", "href": "https://www.heise.de/newsticker/meldung/Verdeckte-Personenfahndung-im-Schengen-Raum-nimmt-rasant-zu-4120243.html", "linkText": "Verdeckte Personenfahndung im Schengen-Raum nimmt rasant zu" },
        { "sourceText": "2018-07-20 | TELEPOLIS", "href": "https://www.heise.de/tp/features/Hamburger-Polizei-nutzt-neue-Technik-zur-Gesichtserkennung-4116479.html", "linkText": "Hamburger Polizei nutzt neue Technik zur Gesichtserkennung" },
        { "sourceText": "2018-07-18 | netzpolitik.org", "href": "https://netzpolitik.org/2018/verfassungsbeschwerde-gegen-automatisierten-biometriezugriff-von-polizeien-und-geheimdiensten/", "linkText": "Verfassungsbeschwerde gegen automatisierten Biometriezugriff von Polizeien und Geheimdiensten" },
        { "sourceText": "2018-07-14 | heise online", "href": "https://www.heise.de/newsticker/meldung/Berlin-Suedkreuz-Kameras-sollen-nun-ungewoehnliche-Situationen-erfassen-4110293.html", "linkText": "Berlin Südkreuz: Kameras sollen nun ungewöhnliche Situationen erfassen" },
        { "sourceText": "2018-07-06 | heise online", "href": "https://www.heise.de/newsticker/meldung/Australien-Fluggesellschaft-Qantas-testet-Gesichtserkennung-4104283.html", "linkText": "Australien: Fluggesellschaft Qantas testet Gesichtserkennung" },
        { "sourceText": "2018-06-28 | netzpolitik.org", "href": "https://netzpolitik.org/2018/videoueberwachung-in-berlin-bessere-praevention-statt-mehr-ueberwachung/", "linkText": "Videoüberwachung in Berlin: Bessere Prävention statt mehr Überwachung" },
        { "sourceText": "2018-06-18 | heise online", "href": "https://www.heise.de/newsticker/meldung/Datenschutzbeauftragte-verlangt-enge-Regeln-fuer-Bodycams-bei-Polizei-4080260.html", "linkText": "Datenschutzbeauftragte verlangt enge Regeln für Bodycams bei Polizei" },
        { "sourceText": "2018-05-23 | heise online", "href": "https://www.heise.de/newsticker/meldung/Amazon-ermoeglicht-Live-Gesichtserkennung-fuer-ganze-Staedte-4055143.html", "linkText": "Amazon ermöglicht Live-Gesichtserkennung für ganze Städte" },
        { "sourceText": "2018-05-16 | heise online", "href": "https://www.heise.de/newsticker/meldung/Verfassungsbeschwerde-gegen-Kfz-Kennzeichen-Scanning-durch-die-Bundespolizei-4050559.html", "linkText": "Verfassungsbeschwerde gegen Kfz-Kennzeichen-Scanning durch die Bundespolizei" },
        { "sourceText": "2018-05-07 | netzpolitik.org", "href": "https://netzpolitik.org/2018/wales-gesichtserkennung-markierte-tausende-faelschlich-als-kriminelle/", "linkText": "Wales: Gesichtserkennung markierte Tausende fälschlich als Kriminelle" },
        { "sourceText": "2018-05-07 | heise online", "href": "https://www.heise.de/newsticker/meldung/Gesichtserkennung-bei-Champions-League-Finale-Tausende-faelschlich-als-Kriminelle-identifiziert-4043089.html", "linkText": "Gesichtserkennung bei Champions-League-Finale: Tausende fälschlich als Kriminelle identifiziert" },
        { "sourceText": "2018-05-06 | TELEPOLIS", "href": "https://www.heise.de/tp/features/Gesichtserkennung-von-Menschenmassen-mit-einer-Fehlerrate-von-92-Prozent-4042982.html", "linkText": "Gesichtserkennung von Menschenmassen mit einer Fehlerrate von 92 Prozent" },
        { "sourceText": "2018-04-28 | netzpolitik.org", "href": "https://netzpolitik.org/2018/nach-kritik-verschaerfung-des-polizeigesetzes-in-bremen-auf-eis-gelegt/", "linkText": "Nach Kritik: Verschärfung des Polizeigesetzes in Bremen auf Eis gelegt" },
        { "sourceText": "2018-04-24 | netzpolitik.org", "href": "https://netzpolitik.org/2018/biometrische-ueberwachung-am-suedkreuz-zwischenbericht-bleibt-geheim/", "linkText": "Biometrische Überwachung am Südkreuz: Zwischenbericht bleibt geheim" },
        { "sourceText": "2018-04-23 | netzpolitik.org", "href": "https://netzpolitik.org/2018/freitag-im-polygon-raven-gegen-ueberwachung-mit-amnesty-international-und-digitale-freiheit/", "linkText": "Freitag im Polygon: Raven gegen Überwachung mit Amnesty International und Digitale Freiheit" },
        { "sourceText": "2018-04-21 | heise online", "href": "https://www.heise.de/newsticker/meldung/Sachsen-Polizei-soll-mit-Gesichtserkennung-und-praeventiver-Ueberwachung-Verbrecher-jagen-4029067.html", "linkText": "Sachsen: Polizei soll mit Gesichtserkennung und präventiver Überwachung Verbrecher jagen" },
        { "sourceText": "2018-04-21 | heise online", "href": "https://www.heise.de/newsticker/meldung/Private-Videoueberwachung-Illegaler-Einsatz-ist-strafbar-4028979.html", "linkText": "Private Videoüberwachung: Illegaler Einsatz ist strafbar" },
        { "sourceText": "2018-04-20 | netzpolitik.org", "href": "https://netzpolitik.org/2018/lauschen-wie-noch-nie-oesterreich-beschliesst-ueberwachungspaket/", "linkText": "Lauschen wie noch nie: Österreich beschließt Überwachungspaket" },
        { "sourceText": "2018-04-18 | netzpolitik.org", "href": "https://netzpolitik.org/2018/facebook-nutzt-anpassung-an-datenschutzgrundverordnung-um-gesichtserkennung-auch-in-europa-zu-starten/", "linkText": "Facebook nutzt Anpassung an Datenschutzgrundverordnung, um Gesichtserkennung auch in Europa zu starten" },
        { "sourceText": "2018-04-13 | netzpolitik.org", "href": "https://netzpolitik.org/2018/buendnis-gegen-videoueberwachung-in-berlin-gegruendet/", "linkText": "Bündnis gegen Videoüberwachung in Berlin gegründet" },
        { "sourceText": "2018-03-30 | heise online", "href": "https://www.heise.de/newsticker/meldung/Polizei-Gewerkschaft-will-einheitliche-Regeln-fuer-Bodycam-Einsatz-4009183.html", "linkText": "Polizei-Gewerkschaft will einheitliche Regeln für Bodycam-Einsatz" },
        { "sourceText": "2018-03-26 | Technology Review", "href": "https://www.heise.de/tr/artikel/Die-grosse-Gesichts-Verkennung-3997687.html", "linkText": "Die große Gesichts-Verkennung" },
        { "sourceText": "2018-03-23 | heise online", "href": "https://www.heise.de/newsticker/meldung/Seehofer-Null-Toleranz-gegen-Verbrecher-Vorfahrt-fuer-die-Sicherheit-4002331.html", "linkText": "Seehofer: Null Toleranz gegen Verbrecher, Vorfahrt für die Sicherheit" },
        { "sourceText": "2018-03-23 | netzpolitik.org", "href": "https://netzpolitik.org/2018/kampagne-gegen-ueberwachungspaket-in-oesterreich-gestartet/", "linkText": "Kampagne gegen Überwachungspaket in Österreich gestartet" },
        { "sourceText": "2018-03-21 | heise online", "href": "https://www.heise.de/meldung/Sicherheitsupdates-Leicht-ausnutzbare-Luecken-in-IP-Kameras-von-Geutebrueck-4000246.html", "linkText": "Sicherheitsupdates: Leicht ausnutzbare Lücken in IP-Kameras von Geutebrück" },
        { "sourceText": "2018-03-21 | heise online", "href": "https://www.heise.de/newsticker/meldung/Polizei-setzt-immer-mehr-automatische-Gesichtserkennung-ein-Datenschuetzer-besorgt-4000106.html", "linkText": "Polizei setzt immer mehr automatische Gesichtserkennung ein, Datenschützer besorgt" },
        { "sourceText": "2018-03-21 | netzpolitik.org", "href": "https://netzpolitik.org/2018/gesichtserkennung-bei-der-bundespolizei-jede-achte-abfrage-ein-treffer/", "linkText": "Gesichtserkennung bei der Bundespolizei: Jede achte Abfrage ein Treffer" },
        { "sourceText": "2018-03-12 | heise online", "href": "https://www.heise.de/meldung/SmartCam-Kritische-Sicherheitsluecken-in-Cloud-Anbindung-von-Samsung-IP-Kameras-3990242.html", "linkText": "SmartCam: Kritische Sicherheitslücken in Cloud-Anbindung von Samsung-IP-Kameras" },
        { "sourceText": "2018-03-09 | netzpolitik.org", "href": "https://netzpolitik.org/2018/berliner-datenschuetzerin-warnt-volksbegehren-fuer-mehr-videoueberwachung-ist-eine-mogelpackung/", "linkText": "Berliner Datenschützerin warnt: Volksbegehren für mehr Videoüberwachung ist eine „Mogelpackung“" },
        { "sourceText": "2018-03-01 | netzpolitik.org", "href": "https://netzpolitik.org/2018/ausbau-der-videoueberwachung-aboutblank-spricht-ueber-die-gefahren/", "linkText": "Ausbau der Videoüberwachung – about:blank spricht über die Gefahren" },
        { "sourceText": "2018-02-26 | netzpolitik.org", "href": "https://netzpolitik.org/2018/wirrwarr-an-systemen-bundesbehoerden-duerfen-passfotos-abfragen-koennen-aber-nicht/", "linkText": "Wirrwarr an Systemen: Bundesbehörden dürfen Passfotos abfragen, können aber nicht" },
        { "sourceText": "2018-02-22 | netzpolitik.org", "href": "https://netzpolitik.org/2018/oesterreichs-rechte-regierung-bringt-ueberwachungspaket-im-eilverfahren-durchs-parlament/", "linkText": "Österreichs rechte Regierung bringt Überwachungspaket im Eilverfahren durchs Parlament" },
        { "sourceText": "2018-02-21 | heise online", "href": "https://www.heise.de/newsticker/meldung/Oesterreich-setzt-auf-Ueberwachung-3975458.html", "linkText": "Österreich setzt auf Überwachung" },
        { "sourceText": "2018-02-19 | heise online", "href": "https://www.heise.de/newsticker/meldung/Berliner-Buergerinitiative-fordert-mehr-Videoueberwachung-3973359.html", "linkText": "Berliner Bürgerinitiative fordert mehr Videoüberwachung" },
        { "sourceText": "2018-02-15 | heise online", "href": "https://www.heise.de/newsticker/meldung/Pilotprojekt-Intelligente-Kameras-sollen-Strassenkriminalitaet-automatisch-erkennen-3969985.html", "linkText": "Pilotprojekt: Intelligente Kameras sollen Straßenkriminalität automatisch erkennen" },
        { "sourceText": "2018-02-12 | heise online", "href": "https://www.heise.de/newsticker/meldung/Gesichtserkennung-funktioniert-am-besten-bei-weissen-Maennern-3965561.html", "linkText": "Gesichtserkennung funktioniert am besten bei weißen Männern" },
        { "sourceText": "2018-02-09 | heise online", "href": "https://www.heise.de/newsticker/meldung/Chinesische-Polizei-setzt-Ueberwachungsbrillen-zur-Gesichtserkennung-ein-3964810.html", "linkText": "Chinesische Polizei setzt Überwachungsbrillen zur Gesichtserkennung ein" },
        { "sourceText": "2018-02-08 | netzpolitik.org", "href": "https://netzpolitik.org/2018/csu-will-polizei-in-bayern-zum-geheimdienst-aufruesten/", "linkText": "CSU will Polizei in Bayern zum Geheimdienst aufrüsten" },
        { "sourceText": "2018-02-07 | netzpolitik.org", "href": "https://netzpolitik.org/2018/china-ruestet-polizei-mit-gesichtserkennungsbrillen-aus/", "linkText": "China rüstet Polizei mit Gesichtserkennungsbrillen aus" },
        { "sourceText": "2018-02-07 | netzpolitik.org", "href": "https://netzpolitik.org/2018/innere-sicherheit-im-koalitionsvertrag-mehr-polizei-mehr-ueberwachung-mehr-datenaustausch/", "linkText": "Innere Sicherheit im Koalitionsvertrag: Mehr Polizei, mehr Überwachung, mehr Datenaustausch" },
        { "sourceText": "2018-02-06 | heise online", "href": "https://www.heise.de/newsticker/meldung/Europaeischer-Polizeikongress-Bundespolizei-lobt-Gesichtserkennung-am-Berliner-Suedkreuz-3961679.html", "linkText": "Europäischer Polizeikongress: Bundespolizei lobt Gesichtserkennung am Berliner Südkreuz" },
        { "sourceText": "2018-02-01 | heise online", "href": "https://www.heise.de/newsticker/meldung/Bayern-plant-Aenderung-des-Polizeirechts-mehr-Bodycams-mehr-Drohnen-3958385.html", "linkText": "Bayern plant Änderung des Polizeirechts: mehr Bodycams, mehr Drohnen" },
        { "sourceText": "2018-01-31 | netzpolitik.org", "href": "https://netzpolitik.org/2018/gesichtserkennung-bka-will-auf-verbessertes-system-umstellen/", "linkText": "Gesichtserkennung: BKA will auf verbessertes System umstellen" },
        { "sourceText": "2018-01-30 | TELEPOLIS", "href": "https://www.heise.de/tp/features/Der-Traum-von-schrankenloser-Videoueberwachung-3952482.html", "linkText": "Der Traum von schrankenloser Videoüberwachung" },
        { "sourceText": "2018-01-26 | heise online", "href": "https://www.heise.de/newsticker/meldung/Bodycams-NRW-Polizei-bricht-Einsatz-Tests-ab-3952051.html", "linkText": "Bodycams: NRW-Polizei bricht Einsatz-Tests ab" },
        { "sourceText": "2018-01-25 | heise online", "href": "https://www.heise.de/newsticker/meldung/Flixbus-testet-Gepaeckkameras-gegen-Drogenschmuggel-3951511.html", "linkText": "Flixbus testet Gepäckkameras gegen Drogenschmuggel" },
        { "sourceText": "2018-01-18 | heise online", "href": "https://www.heise.de/newsticker/meldung/Indien-Videoueberwachung-in-Klassenzimmern-fuer-Eltern-und-Beamte-3945533.html", "linkText": "Indien: Videoüberwachung in Klassenzimmern für Eltern und Beamte" },
        { "sourceText": "2018-01-10 | netzpolitik.org", "href": "https://netzpolitik.org/2018/chinas-plant-allgegenwaertige-videoueberwachung-mit-gesichtserkennung-bis-2020/", "linkText": "China plant allgegenwärtige Videoüberwachung mit Gesichtserkennung bis 2020" }
      ] },
      { "sectionTitle": "sect-2017", "isExpandable": true, "isExpandedByDefault": false, "listEntries": [
        { "sourceText": "2017-12-21 | netzpolitik.org", "href": "https://netzpolitik.org/2017/facebook-weitet-gesichtserkennung-aus/", "linkText": "Facebook weitet Gesichtserkennung aus" },
        { "sourceText": "2017-12-20 | netzpolitik.org", "href": "https://netzpolitik.org/2017/de-maiziere-plant-flaechendeckende-gesichtserkennung-trotz-hoher-fehlerquoten-am-suedkreuz/", "linkText": "De Maizière plant flächendeckende Gesichtserkennung trotz hoher Fehlerquoten am Südkreuz" },
        { "sourceText": "2017-12-18 | heise online", "href": "https://www.heise.de/newsticker/meldung/Oesterreich-Neue-schwarz-blaue-Regierung-will-Ueberwachung-ausbauen-3921232.html", "linkText": "Österreich: Neue schwarz-blaue Regierung will Überwachung ausbauen" },
        { "sourceText": "2017-12-15 | heise online", "href": "https://www.heise.de/newsticker/meldung/Automatische-Gesichtserkennung-am-Berliner-Suedkreuz-Erste-Ergebnisse-vorgestellt-3919338.html", "linkText": "Automatische Gesichtserkennung am Berliner Südkreuz: Erste Ergebnisse vorgestellt" },
        { "sourceText": "2017-12-14 | netzpolitik.org", "href": "https://netzpolitik.org/2017/suedkreuz-test-zur-intelligenten-videoanalyse-innenministerium-rueckt-akten-raus/", "linkText": "Südkreuz-Test zur „intelligenten Videoanalyse“: Innenministerium rückt Akten raus" },
        { "sourceText": "2017-12-14 | TELEPOLIS", "href": "https://www.heise.de/tp/features/Interpol-startet-neues-System-zur-Gesichtserkennung-3917899.html", "linkText": "Interpol startet neues System zur Gesichtserkennung" },
        { "sourceText": "2017-12-14 | netzpolitik.org", "href": "https://netzpolitik.org/2017/kassel-treibt-videoueberwachung-trotz-ungeklaerter-rechtsgrundlage-voran/", "linkText": "Kassel treibt Videoüberwachung trotz ungeklärter Rechtsgrundlage voran" },
        { "sourceText": "2017-12-14 | heise online", "href": "https://www.heise.de/newsticker/meldung/Datenschutzbeauftragte-ueberprueft-Amazon-Logistikzentrum-3917937.html", "linkText": "Datenschutzbeauftragte überprüft Amazon-Logistikzentrum" },
        { "sourceText": "2017-12-11 | netzpolitik.org", "href": "https://netzpolitik.org/2017/deutschlandfunk-skizziert-den-supermarkt-der-zukunft/", "linkText": "Deutschlandfunk skizziert den Supermarkt der Zukunft" },
        { "sourceText": "2017-12-09 | heise online", "href": "https://www.heise.de/newsticker/meldung/DHL-Erpressungsversuch-Innenministerium-will-Paketstationen-videoueberwachen-3914742.html", "linkText": "DHL-Erpressungsversuch: Innenministerium will Paketstationen videoüberwachen" },
        { "sourceText": "2017-12-08 | heise online", "href": "https://www.heise.de/newsticker/meldung/De-Maiziere-Hersteller-zur-Mithilfe-bei-Ueberwachung-verpflichten-3914165.html", "linkText": "De Maizière: Hersteller zur Mithilfe bei Überwachung verpflichten" },
        { "sourceText": "2017-12-01 | heise online", "href": "https://www.heise.de/newsticker/meldung/Bayern-will-Gesichtserkennung-als-Fahndungsmassnahme-ausweiten-3906001.html", "linkText": "Bayern will Gesichtserkennung als Fahndungsmaßnahme ausweiten" },
        { "sourceText": "2017-11-30 | Digitalcourage e.V.", "href": "https://digitalcourage.de/blog/2017/endstation-protest-suedkreuz", "linkText": "Endstation – Bilder vom Protest am Bahnhof Berlin Südkreuz" },
        { "sourceText": "2017-11-29 | TELEPOLIS", "href": "https://www.heise.de/tp/features/Bayer-beendet-Gesichtsscans-in-oesterreichischen-Apotheken-3904255.html", "linkText": "Bayer beendet Gesichtsscans in österreichischen Apotheken" },
        { "sourceText": "2017-11-29 | netzpolitik.org", "href": "https://netzpolitik.org/2017/bunter-protest-beim-aktionstag-gegen-videoueberwachung-am-berliner-suedkreuz/", "linkText": "Bunter Protest beim Aktionstag gegen Videoüberwachung am Berliner Südkreuz" },
        { "sourceText": "2017-11-29 | netzpolitik.org", "href": "https://netzpolitik.org/2017/das-traurigste-produkt-im-ganzen-internet/", "linkText": "Das traurigste Produkt im ganzen Internet" },
        { "sourceText": "2017-11-28 | heise online", "href": "https://www.heise.de/newsticker/meldung/Automatisierte-Gesichtserkennung-am-Verunsicherungsbahnhof-Suedkreuz-Spalier-fuer-alle-3903026.html", "linkText": "Automatisierte Gesichtserkennung am „Verunsicherungsbahnhof“ Südkreuz: Spalier für alle" },
        { "sourceText": "2017-11-27 | netzpolitik.org", "href": "https://netzpolitik.org/2017/bitte-laecheln-bayer-erkennt-keine-gesichter-in-apotheken-mehr/", "linkText": "Bitte lächeln: Bayer erkennt keine Gesichter in Apotheken mehr" },
        { "sourceText": "2017-11-27 | Digitalcourage e.V.", "href": "https://digitalcourage.de/blog/2017/kameras-auf-der-schultoilette-kein-witz", "linkText": "Kameras auf der Schultoilette? Leider kein Witz." },
        { "sourceText": "2017-11-26 | heise online", "href": "https://www.heise.de/newsticker/meldung/Australien-will-staatliche-Gesichtserkennung-fuer-Firmen-oeffnen-3901720.html", "linkText": "Australien will staatliche Gesichtserkennung für Firmen öffnen" },
        { "sourceText": "2017-11-23 | netzpolitik.org", "href": "https://netzpolitik.org/2017/bayer-setzt-in-oesterreich-gesichtsscanner-in-apotheken-ein/", "linkText": "Bayer setzt in Österreich Gesichtsscanner in Apotheken ein" },
        { "sourceText": "2017-11-23 | heise online", "href": "https://www.heise.de/newsticker/meldung/Snowden-warnt-vor-Big-Data-Biometrie-und-dem-iPhone-X-3899649.html", "linkText": "Snowden warnt vor Big Data, Biometrie und dem iPhone X" },
        { "sourceText": "2017-11-20 | netzpolitik.org", "href": "https://netzpolitik.org/2017/berlin-aktionstag-gegen-verunsicherungsbahnhof-suedkreuz-angekuendigt/", "linkText": "Berlin: Aktionstag gegen „Verunsicherungsbahnhof“ Südkreuz angekündigt" },
        { "sourceText": "2017-11-19 | heise online", "href": "https://www.heise.de/newsticker/meldung/Hessen-baut-Videoueberwachung-aus-3893508.html", "linkText": "Hessen baut Videoüberwachung aus" },
        { "sourceText": "2017-11-16 | netzpolitik.org", "href": "https://netzpolitik.org/2017/kassel-plant-ausweitung-der-videoueberwachung-obwohl-die-kriminalitaet-sinkt/", "linkText": "Kassel plant Ausweitung der Videoüberwachung – obwohl die Kriminalität sinkt" },
        { "sourceText": "2017-11-15 | Technology Review", "href": "https://www.heise.de/tr/artikel/Face-Mit-dem-Gesicht-durch-die-Tuer-3888403.html", "linkText": "Face++: Mit dem Gesicht durch die Tür" },
        { "sourceText": "2017-11-10 | heise online", "href": "https://www.heise.de/newsticker/meldung/Niedersachsen-bestellt-500-Bodycams-fuer-die-Polizei-3888051.html", "linkText": "Niedersachsen bestellt 500 Bodycams für die Polizei" },
        { "sourceText": "2017-11-01 | netzpolitik.org", "href": "https://netzpolitik.org/2017/sachsen-kombination-von-kennzeichenscanner-und-gesichtserkennung-gefordert/", "linkText": "Sachsen: Kombination von Kennzeichenscanner und Gesichtserkennung gefordert" },
        { "sourceText": "2017-11-01 | netzpolitik.org", "href": "https://netzpolitik.org/2017/gesichtserkennung-datenschutz-lehrstueck-mit-datenschutzproblemen/", "linkText": "Gesichtserkennung: Datenschutz-Lehrstück mit Datenschutzproblemen" },
        { "sourceText": "2017-10-31 | heise online", "href": "https://www.heise.de/newsticker/meldung/Jamaika-Sondierer-wollen-Gigabitnetz-modernes-Datenrecht-und-Videoueberwachung-3876398.html", "linkText": "Jamaika-Sondierer wollen Gigabitnetz, modernes Datenrecht und Videoüberwachung" },
        { "sourceText": "2017-10-24 | heise online", "href": "https://www.heise.de/newsticker/meldung/Computer-Gesichtserkennung-im-Bahnhof-Proteste-abgeflaut-3870182.html", "linkText": "Computer-Gesichtserkennung im Bahnhof – Proteste abgeflaut" },
        { "sourceText": "2017-10-18 | netzpolitik.org", "href": "https://netzpolitik.org/2017/tuebinger-wohnprojekt-wochenlang-videoueberwacht/", "linkText": "Tübinger Wohnprojekt wochenlang videoüberwacht" },
        { "sourceText": "2017-10-12 | heise online", "href": "https://www.heise.de/newsticker/meldung/Harsche-Kritik-an-gruen-schwarzen-Ueberwachungsplaenen-3858580.html", "linkText": "Harsche Kritik an grün-schwarzen Überwachungsplänen" },
        { "sourceText": "2017-10-05 | netzpolitik.org", "href": "https://netzpolitik.org/2017/umfrage-76-prozent-gegen-gesichtserkennung-im-supermarkt/", "linkText": "Umfrage: 76 Prozent gegen Gesichtserkennung im Supermarkt" },
        { "sourceText": "2017-10-05 | heise online", "href": "https://www.heise.de/newsticker/meldung/Umfrage-Mehrheit-gegen-Gesichtserkennung-fuer-Werbezwecke-3850148.html", "linkText": "Umfrage: Mehrheit gegen Gesichtserkennung für Werbezwecke" },
        { "sourceText": "2017-10-03 | heise online", "href": "https://www.heise.de/newsticker/meldung/NEC-gewinnt-Ceatec-Award-fuer-Gesichtserkennungssystem-3849218.html", "linkText": "NEC gewinnt Ceatec-Award für Gesichtserkennungssystem" },
        { "sourceText": "2017-09-29 | heise online", "href": "https://www.heise.de/newsticker/meldung/Moskau-ergaenzt-Videoueberwachung-mit-automatischer-Gesichtserkennung-3847485.html", "linkText": "Moskau ergänzt Videoüberwachung mit automatischer Gesichtserkennung" },
        { "sourceText": "2017-09-28 | heise online", "href": "https://www.heise.de/newsticker/meldung/G20-Krawalle-Polizei-will-mit-automatisierter-Gesichtserkennung-Randalierer-jagen-3846050.html", "linkText": "G20-Krawalle: Polizei will mit automatisierter Gesichtserkennung Randalierer jagen" },
        { "sourceText": "2017-09-28 | netzpolitik.org", "href": "https://netzpolitik.org/2017/g20-gipfel-polizei-durchsucht-zehntausende-dateien-mit-software-zur-gesichtserkennung/", "linkText": "G20-Gipfel: Polizei durchsucht zehntausende Dateien mit Gesichtserkennungssoftware" },
        { "sourceText": "2017-09-21 | Digitalcourage e.V.", "href": "https://digitalcourage.de/blog/2017/rena-tangens-im-zdf-heimliche-ueberwachung-im-supermarkt", "linkText": "Rena Tangens im ZDF: Heimliche Überwachung im Supermarkt" },
        { "sourceText": "2017-09-13 | netzpolitik.org", "href": "https://netzpolitik.org/2017/niederlande-versteckte-kameras-mit-analyse-software-in-werbetafeln-gefunden/", "linkText": "Niederlande: Versteckte Kameras mit Analyse-Software in Werbetafeln gefunden" },
        { "sourceText": "2017-09-12 | netzpolitik.org", "href": "https://netzpolitik.org/2017/innenministerium-verweigert-antworten-zur-automatisierten-gesichtserkennung/", "linkText": "Innenministerium verweigert Antworten zur automatisierten Gesichtserkennung" },
        { "sourceText": "2017-09-11 | Digitalcourage e.V.", "href": "https://digitalcourage.de/blog/2017/zdf-wiso-wie-supermaerkte-ihre-kundinnen-ueberwachen", "linkText": "ZDF WISO: Wie Supermärkte ihre Kund.innen überwachen" },
        { "sourceText": "2017-09-09 | heise online", "href": "https://www.heise.de/newsticker/meldung/Datenschuetzer-scheitern-mit-Klage-gegen-Kameraueberwachung-in-Bus-und-Bahn-3825832.html", "linkText": "Datenschützer scheitern mit Klage gegen Kameraüberwachung in Bus und Bahn" },
        { "sourceText": "2017-09-08 | TELEPOLIS", "href": "https://www.heise.de/tp/features/Teilweise-verhuellte-Gesichter-koennten-mit-KI-unterstuetzter-Gesichtserkennung-identifiziert-werden-3824239.html", "linkText": "Teilweise verhüllte Gesichter könnten mit KI unterstützter Gesichtserkennung identifiziert werden" },
        { "sourceText": "2017-08-25 | Technology Review", "href": "https://www.heise.de/tr/artikel/China-Das-Gesicht-als-Universalschluessel-3811404.html", "linkText": "China: Das Gesicht als Universalschlüssel" },
        { "sourceText": "2017-08-25 | Digitalcourage e.V.", "href": "https://digitalcourage.de/blog/2017/aktion-gegen-gesichtsscans-suedkreuzprojekt-fehlt-rechtsgrundlage", "linkText": "Aktion gegen Gesichtsscans: Südkreuzprojekt fehlt Rechtsgrundlage" },
        { "sourceText": "2017-08-24 | netzpolitik.org", "href": "https://netzpolitik.org/2017/polizei-will-gesichtserkennung-beim-notting-hill-carnival-in-london-einsetzen/", "linkText": "Polizei will Gesichtserkennung beim Notting Hill Carnival in London einsetzen" },
        { "sourceText": "2017-08-24 | heise online", "href": "https://www.heise.de/newsticker/meldung/Automatische-Gesichtserkennung-Bundesdatenschutzbeauftragte-fordert-Stopp-des-Berliner-Pilotprojekts-3811627.html", "linkText": "Automatische Gesichtserkennung: Bundesdatenschutzbeauftragte fordert Stopp des Berliner Pilotprojekts" },
        { "sourceText": "2017-08-24 | netzpolitik.org", "href": "https://netzpolitik.org/2017/bundesregierung-test-am-suedkreuz-wird-auf-jeden-fall-ein-erfolg/", "linkText": "Bundesregierung: Test am Südkreuz wird auf jeden Fall ein Erfolg" },
        { "sourceText": "2017-08-24 | netzpolitik.org", "href": "https://netzpolitik.org/2017/minister-de-maiziere-fuer-flaechendeckende-biometrische-videoueberwachung/", "linkText": "Minister de Maizière für flächendeckende biometrische Videoüberwachung" },
        { "sourceText": "2017-08-23 | netzpolitik.org", "href": "https://netzpolitik.org/2017/demo-gegen-ueberwachung-am-bahnhof-suedkreuz-zum-minister-termin/", "linkText": "Demo gegen Überwachung am Bahnhof Südkreuz zum Minister-Termin" },
        { "sourceText": "2017-08-22 | heise online", "href": "https://www.heise.de/newsticker/meldung/Mehr-Kameras-Wird-der-Freistaat-Bayern-zum-Ueberwachungsstaat-3809934.html", "linkText": "Mehr Kameras: Wird der Freistaat Bayern zum Überwachungsstaat?" },
        { "sourceText": "2017-08-22 | netzpolitik.org", "href": "https://netzpolitik.org/2017/videoueberwachung-vorerst-keine-gesichts-und-verhaltensscanner-in-goerlitz/", "linkText": "Videoüberwachung: Vorerst keine Gesichts- und Verhaltensscanner in Görlitz" },
        { "sourceText": "2017-08-21 | Digitalcourage e.V.", "href": "https://digitalcourage.de/blog/2017/gesichtserkennung-am-suedkreuz-bundespolizei-hat-falsch-informiert-wir-fordern-abbruch-des", "linkText": "Gesichtserkennung am Südkreuz: Bundespolizei hat falsch informiert – Wir fordern Abbruch des Tests" },
        { "sourceText": "2017-08-10 | netzpolitik.org", "href": "https://netzpolitik.org/2017/bka-schliesst-probelauf-zur-gesichtserkennung-ab/", "linkText": "BKA schließt Probelauf zur Gesichtserkennung ab" },
        { "sourceText": "2017-08-03 | Digitalcourage e.V.", "href": "https://digitalcourage.de/blog/2017/sicherheit-durch-ueberwachung-ein-gefaehrliches-versprechen", "linkText": "Sicherheit durch Überwachung! Ein gefährliches Versprechen." },
        { "sourceText": "2017-08-02 | netzpolitik.org", "href": "https://netzpolitik.org/2017/automatische-gesichtsscanner-am-suedkreuz-pilotbetrieb-rechtlich-so-nicht-zulaessig/", "linkText": "Automatische Gesichtsscanner am Südkreuz: „Pilotbetrieb rechtlich so nicht zulässig“" },
        { "sourceText": "2017-08-02 | netzpolitik.org", "href": "https://netzpolitik.org/2017/weltkarte-der-videoueberwachung-waechst-rasant/", "linkText": "Weltkarte der Videoüberwachung wächst rasant" },
        { "sourceText": "2017-08-02 | heise online", "href": "https://www.heise.de/newsticker/meldung/Automatische-Gesichtserkennung-Test-der-Bundespolizei-bringt-gesteigertes-Sicherheitsgefuehl-oder-3789990.html", "linkText": "Automatische Gesichtserkennung: Test der Bundespolizei bringt „gesteigertes Sicherheitsgefühl“ oder „Überwachungsdruck“" },
        { "sourceText": "2017-08-01 | netzpolitik.org", "href": "https://netzpolitik.org/2017/ortstermin-am-suedkreuz-die-automatische-gesichtserkennung-beginnt/", "linkText": "Ortstermin am Südkreuz: Die automatische Gesichtserkennung beginnt" },
        { "sourceText": "2017-08-01 | FIfF e.V.", "href": "https://www.fiff.de/verfaelschte-studie-zur-tauglichkeit-grundrechtswidriger-techniken", "linkText": "Verfälschte Studie zur Tauglichkeit grundrechtswidriger Techniken" },
        { "sourceText": "2017-08-01 | Digitalcourage e.V.", "href": "https://digitalcourage.de/presse/pressemitteilungen/pilotprojekt-suedkreuz-digitalcourage-kritisiert-ueberwachung-fuehrt-nicht", "linkText": "Pilotprojekt Südkreuz – Digitalcourage kritisiert: „Überwachung führt nicht zu Sicherheit.“" },
        { "sourceText": "2017-07-28 | heise online", "href": "https://www.heise.de/newsticker/meldung/Test-von-automatischer-Gesichtserkennung-in-der-Oeffentlichkeit-vor-dem-Start-3785688.html", "linkText": "Test von automatischer Gesichtserkennung in der Öffentlichkeit vor dem Start" },
        { "sourceText": "2017-07-27 | netzpolitik.org", "href": "https://netzpolitik.org/2017/oesterreich-ueberwachungspaket-steht-auf-der-kippe/", "linkText": "Österreich: Überwachungspaket steht auf der Kippe" },
        { "sourceText": "2017-07-27 | netzpolitik.org", "href": "https://netzpolitik.org/2017/bahnhof-suedkreuz-60-000-euro-fuer-sechs-monate-gesichtserkennung/", "linkText": "Bahnhof Südkreuz: 60.000 Euro für sechs Monate Gesichtserkennung" },
        { "sourceText": "2017-07-25 | netzpolitik.org", "href": "https://netzpolitik.org/2017/berliner-buendnis-fuer-mehr-videoaufklaerung-ueberwachung-heisst-jetzt-datenschutz/", "linkText": "Berliner Bündnis für mehr „Videoaufklärung“: Überwachung heißt jetzt Datenschutz" },
        { "sourceText": "2017-07-19 | heise online", "href": "https://www.heise.de/security/meldung/Sicherheitsluecke-in-Axis-Ueberwachungskamera-mit-Breitenwirkung-3776579.html", "linkText": "Sicherheitslücke in Axis-Überwachungskamera mit Breitenwirkung" },
        { "sourceText": "2017-07-18 | heise online", "href": "https://www.heise.de/newsticker/meldung/Motorola-plant-Polizei-Bodycams-mit-Gesichtserkennung-in-Echtzeit-3775898.html", "linkText": "Motorola plant Polizei-Bodycams mit Gesichtserkennung in Echtzeit" },
        { "sourceText": "2017-07-13 | netzpolitik.org", "href": "https://netzpolitik.org/2017/russische-demonstranten-per-gesichtserkennungs-software-identifiziert/", "linkText": "Russische Demonstranten per Gesichtserkennungs-Software identifiziert" },
        { "sourceText": "2017-07-12 | heise online", "href": "https://www.heise.de/newsticker/meldung/Volksbegehren-Bis-zu-2500-Kameras-an-gefaehrlichen-Orten-in-Berlin-3769501.html", "linkText": "Volksbegehren: Bis zu 2500 Kameras an gefährlichen Orten in Berlin" },
        { "sourceText": "2017-07-11 | heise online", "href": "https://www.heise.de/newsticker/meldung/Oesterreich-Staatstrojaner-und-Vorratsdaten-fuer-die-Polizei-3769384.html", "linkText": "Österreich: Staatstrojaner und Vorratsdaten für die Polizei" },
        { "sourceText": "2017-07-04 | netzpolitik.org", "href": "https://netzpolitik.org/2017/hamburger-videoueberwachungskarte-zum-mitmachen/", "linkText": "Hamburger Videoüberwachungskarte zum Mitmachen" },
        { "sourceText": "2017-07-04 | netzpolitik.org", "href": "https://netzpolitik.org/2017/china-mit-gesichtserkennung-gegen-klopapierdiebstahl/", "linkText": "China: Mit Gesichtserkennung gegen Klopapierdiebstahl" },
        { "sourceText": "2017-07-03 | heise online", "href": "https://www.heise.de/newsticker/meldung/China-Gesichtserkennung-zur-Verkehrserziehung-3761915.html", "linkText": "China: Gesichtserkennung zur Verkehrserziehung" },
        { "sourceText": "2017-06-29 | netzpolitik.org", "href": "https://netzpolitik.org/2017/totalueberwachung-wegen-terrorismus-eine-forderung-von-tyrannen/", "linkText": "Totalüberwachung wegen Terrorismus: eine Forderung von Tyrannen" },
        { "sourceText": "2017-06-29 | heise online", "href": "https://www.heise.de/newsticker/meldung/Bahn-will-bundesweit-Sicherheitspersonal-mit-Bodycams-ausstatten-3758918.html", "linkText": "Bahn will bundesweit Sicherheitspersonal mit Bodycams ausstatten" },
        { "sourceText": "2017-06-28 | heise online", "href": "https://www.heise.de/newsticker/meldung/Ausserparlamentarische-Opposition-klagt-gegen-Ueberwachungsgesetze-3758121.html", "linkText": "Außerparlamentarische Opposition klagt gegen Überwachungsgesetze" },
        { "sourceText": "2017-06-28 | Digitalcourage e.V.", "href": "https://digitalcourage.de/blog/2017/etappensieg-real-gibt-auf-die-post-muss-nachziehen", "linkText": "Etappensieg: Real gibt auf, die Post muss nachziehen!" },
        { "sourceText": "2017-06-28 | netzpolitik.org", "href": "https://netzpolitik.org/2017/aus-angst-vor-image-schaeden-real-beendet-tests-mit-gesichts-scannern/", "linkText": "Aus Angst vor Image-Schäden: Real beendet Tests mit Gesichts-Scannern" },
        { "sourceText": "2017-06-27 | heise online", "href": "https://www.heise.de/newsticker/meldung/Werbedisplays-mit-Gesichtsscan-Real-beendet-Tests-in-Supermaerkten-3757306.html", "linkText": "Werbedisplays mit Gesichtsscan: Real beendet Tests in Supermärkten" },
        { "sourceText": "2017-06-25 | heise online", "href": "https://www.heise.de/newsticker/meldung/Hessens-Innenminister-Beuth-spricht-sich-fuer-staerkere-Videoueberwachung-aus-3755309.html", "linkText": "Hessens Innenminister Beuth spricht sich für stärkere Videoüberwachung aus" },
        { "sourceText": "2017-06-22 | Digitalcourage e.V.", "href": "https://digitalcourage.de/blog/2017/selfiestattanalyse-masken-gegen-ueberwachunung", "linkText": "SelfieStattAnalyse: Masken gegen Überwachung" },
        { "sourceText": "2017-06-22 | netzpolitik.org", "href": "https://netzpolitik.org/2017/sicherheitsbahnhof-kurz-vor-projektstart-noch-keine-analysesoftware-ausgewaehlt/", "linkText": "Sicherheitsbahnhof: Kurz vor Projektstart noch keine Analysesoftware ausgewählt" },
        { "sourceText": "2017-06-22 | netzpolitik.org", "href": "https://netzpolitik.org/2017/wenn-die-polizei-spd-lokalpolitiker-beim-ausbau-der-videoueberwachung-stoppt/", "linkText": "Wenn die Polizei SPD-Lokalpolitiker beim Ausbau der Videoüberwachung stoppt" },
        { "sourceText": "2017-06-22 | Digitalcourage e.V.", "href": "https://digitalcourage.de/blog/2017/gesichtserkennung-bei-real-und-post-helft-mit-die-ueberwachten-filialen-zu-finden", "linkText": "Gesichtserkennung bei Real und Post: Helft mit, die überwachten Filialen zu finden!" },
        { "sourceText": "2017-06-22 | Digitalcourage e.V.", "href": "https://digitalcourage.de/blog/2017/padeluun-im-zdf-gesichtserkennung-bei-real-und-post-staatstrojaner", "linkText": "padeluun im ZDF: Gesichtserkennung bei Real und Post & Staatstrojaner" },
        { "sourceText": "2017-06-21 | netzpolitik.org", "href": "https://netzpolitik.org/2017/oesterreich-aktionstag-gegen-ueberwachungspaket-am-24-juni/", "linkText": "Österreich: Aktionstag gegen Überwachungspaket am 24. Juni" },
        { "sourceText": "2017-06-21 | TELEPOLIS", "href": "https://www.heise.de/tp/features/Real-und-Deutsche-Post-wegen-Kameraanalyse-von-Kunden-angezeigt-3750274.html", "linkText": "Real und Deutsche Post wegen Kameraanalyse von Kunden angezeigt" },
        { "sourceText": "2017-06-20 | netzpolitik.org", "href": "https://netzpolitik.org/2017/buergerrechtler-zeigen-real-und-post-wegen-gesichtsanalyse-von-kunden-an/", "linkText": "Bürgerrechtler zeigen Real und Post wegen Gesichtsanalyse von Kunden an" },
        { "sourceText": "2017-06-19 | netzpolitik.org", "href": "https://netzpolitik.org/2017/polizei-sucht-freiwillige-den-meistueberwachten-winken-einkaufsgutscheine/", "linkText": "Polizei sucht Freiwillige: Den Meistüberwachten winken Einkaufsgutscheine" },
        { "sourceText": "2017-06-19 | heise online", "href": "https://www.heise.de/newsticker/meldung/Gesichtserkennung-per-Video-Bundespolizei-sucht-Berliner-Freiwillige-3746657.html", "linkText": "Gesichtserkennung per Video: Bundespolizei sucht Berliner Freiwillige" },
        { "sourceText": "2017-06-14 | EPICENTER.WORKS", "href": "https://epicenter.works/content/ueberwachungspaket-vorratsdatenspeicherung-fuer-ueberwachungsvideos-geplant", "linkText": "Überwachungspaket: Vorratsdatenspeicherung für Überwachungsvideos geplant!" },
        { "sourceText": "2017-06-12 | heise online", "href": "https://www.heise.de/newsticker/meldung/Werbedisplay-mit-Gesichts-Scan-Bayerns-Datenschuetzer-sehen-kein-Problem-3741086.html", "linkText": "Werbedisplay mit Gesichts-Scan: Bayerns Datenschützer sehen kein Problem" },
        { "sourceText": "2017-06-11 | heise online", "href": "https://www.heise.de/newsticker/meldung/de-Maiziere-Mit-Software-zur-Gesichtserkennung-nach-Terroristen-fahnden-3740349.html", "linkText": "de Maizière: Mit Software zur Gesichtserkennung nach Terroristen fahnden" },
        { "sourceText": "2017-06-09 | heise online", "href": "https://www.heise.de/newsticker/meldung/Werbedisplays-mit-Gesichtserkennung-Digitalcourage-will-gegen-Deutsche-Post-und-Real-klagen-3739815.html", "linkText": "Werbedisplays mit Gesichtserkennung: Digitalcourage will gegen Deutsche Post und Real klagen" },
        { "sourceText": "2017-06-09 | heise online", "href": "https://www.heise.de/newsticker/meldung/Netzwerkkameras-von-Foscam-sind-nach-wie-vor-Sicherheitsrisiken-3739735.html", "linkText": "Netzwerkkameras von Foscam sind nach wie vor Sicherheitsrisiken" },
        { "sourceText": "2017-06-07 | Digitalcourage e.V.", "href": "https://digitalcourage.de/blog/2017/gesichtsanalyse-bei-post-und-real-wir-stellen-strafanzeige", "linkText": "Gesichtsanalyse bei Post und Real – Wir stellen Strafanzeige" },
        { "sourceText": "2017-06-06 | EPICENTER.WORKS", "href": "https://epicenter.works/content/24-juni-2017-aktionstag-gegen-das-ueberwachungspaket", "linkText": "24. Juni 2017: Aktionstag gegen das Überwachungspaket" },
        { "sourceText": "2017-06-02 | heise online", "href": "https://www.heise.de/newsticker/meldung/Innere-Sicherheit-SPD-will-Einbrecher-mit-Predictive-Policing-jagen-und-mehr-Videoueberwachung-3733429.html", "linkText": "Innere Sicherheit: SPD will Einbrecher mit „Predictive Policing“ jagen und mehr Videoüberwachung" },
        { "sourceText": "2017-05-30 | netzpolitik.org", "href": "https://netzpolitik.org/2017/real-supermaerkte-bald-mit-gesichtsanalyse/", "linkText": "Real-Supermärkte bald mit Gesichtsanalyse" },
        { "sourceText": "2017-05-30 | heise online", "href": "https://www.heise.de/newsticker/meldung/Werbedisplays-mit-Gesichtserkennnung-auch-in-Real-Maerkten-3728931.html", "linkText": "Werbedisplays mit Gesichtserkennnung auch in Real-Märkten" },
        { "sourceText": "2017-05-22 | netzpolitik.org", "href": "https://netzpolitik.org/2017/buch-zum-runterladen-videoueberwachung-und-automatisierte-bilderauswertung/", "linkText": "Buch zum Runterladen: Videoüberwachung und automatisierte Bilderauswertung" },
        { "sourceText": "2017-05-19 | Digitalcourage e.V.", "href": "https://digitalcourage.de/blog/2017/ueberwachung-in-oeffentlichen-verkehrsmitteln", "linkText": "Überwachung in öffentlichen Verkehrsmitteln" },
        { "sourceText": "2017-05-16 | Technology Review", "href": "https://www.heise.de/tr/artikel/Diese-Kamera-weiss-was-Du-gestern-getan-hast-3714118.html", "linkText": "Diese Kamera weiß, was Du gestern getan hast" },
        { "sourceText": "2017-05-11 | heise online", "href": "https://www.heise.de/developer/meldung/Build-2017-Automatisierte-Video-Ueberwachung-fuer-Jedermann-3710352.html", "linkText": "Build 2017: Automatisierte Video-Überwachung für Jedermann" },
        { "sourceText": "2017-05-10 | heise online", "href": "https://www.heise.de/newsticker/meldung/Build-2017-Echtzeitueberwachung-aus-der-Cloud-3710234.html", "linkText": "Build 2017: Echtzeitüberwachung aus der Cloud" },
        { "sourceText": "2017-05-06 | Digitalcourage e.V.", "href": "https://digitalcourage.de/themen/videoueberwachung/wissenschaftliche-materialsammlung-wirkt-videoueberwachung", "linkText": "Wissenschaftliche Materialsammlung: Wirkt Videoüberwachung?" },
        { "sourceText": "2017-05-06 | heise online", "href": "https://www.heise.de/newsticker/meldung/Datenschuetzer-stellt-Bedingungen-fuer-Polizei-Schulterkameras-in-Baden-Wuerttemberg-3704706.html", "linkText": "Datenschützer stellt Bedingungen für Polizei-Schulterkameras in Baden-Württemberg" },
        { "sourceText": "2017-05-02 | netzpolitik.org", "href": "https://netzpolitik.org/2017/interview-zur-videoueberwachung-computer-die-auf-menschen-starren/", "linkText": "Interview zur Videoüberwachung: Computer, die auf Menschen starren" },
        { "sourceText": "2017-04-28 | heise online", "href": "https://www.heise.de/newsticker/meldung/Weniger-Kontrollrechte-Bundestag-beschliesst-Gesetz-zur-EU-Datenschutzreform-3699398.html", "linkText": "Weniger Kontrollrechte: Bundestag beschließt Gesetz zur EU-Datenschutzreform" },
        { "sourceText": "2017-04-27 | heise online", "href": "https://www.heise.de/newsticker/meldung/Automatische-Gesichtserkennung-soll-zum-Finale-der-Champions-League-eingesetzt-werden-3698983.html", "linkText": "Automatische Gesichtserkennung soll zum Finale der Champions League eingesetzt werden" },
        { "sourceText": "2017-04-25 | netzpolitik.org", "href": "https://netzpolitik.org/2017/wahlpruefsteine-wie-stehen-die-parteien-in-schleswig-holstein-zu-videoueberwachung-und-staatstrojanern/", "linkText": "Wahlprüfsteine: Wie stehen die Parteien in Schleswig-Holstein zu Videoüberwachung und Staatstrojanern?" },
        { "sourceText": "2017-04-25 | heise online", "href": "https://www.heise.de/newsticker/meldung/NRW-Datenschutzaufsicht-Buerger-beschweren-sich-zunehmend-ueber-Videoueberwachung-3693931.html", "linkText": "NRW-Datenschutzaufsicht: Bürger beschweren sich zunehmend über Videoüberwachung" },
        { "sourceText": "2017-04-20 | heise online", "href": "https://www.heise.de/newsticker/meldung/Datenschutzbeauftragter-von-Rheinland-Pfalz-fordert-genaue-Vorgaben-fuer-Videoueberwachung-3688887.html", "linkText": "Datenschutzbeauftragter von Rheinland-Pfalz fordert genaue Vorgaben für Videoüberwachung" },
        { "sourceText": "2017-04-19 | netzpolitik.org", "href": "https://netzpolitik.org/2017/neue-videokameras-in-alten-zuegen-berliner-s-bahn-chef-will-fuer-250-millionen-euro-aufruesten/", "linkText": "Neue Videokameras in alten Zügen: Berliner S-Bahn-Chef will für 250 Millionen Euro aufrüsten" },
        { "sourceText": "2017-04-17 | heise online", "href": "https://www.heise.de/newsticker/meldung/Thueringen-Keine-Generalerlaubnis-fuer-mehr-Videoueberwachung-3686470.html", "linkText": "Thüringen: Keine Generalerlaubnis für mehr Videoüberwachung" },
        { "sourceText": "2017-04-16 | heise online", "href": "https://www.heise.de/newsticker/meldung/Datenschuetzerin-Test-zur-Gesichtserkennung-am-Bahnhof-akzeptabel-3686372.html", "linkText": "Datenschützerin: Test zur Gesichtserkennung am Bahnhof akzeptabel" },
        { "sourceText": "2017-04-14 | heise online", "href": "https://www.heise.de/newsticker/meldung/Berlin-Multi-Millionen-Programm-fuer-Videoueberwachung-in-S-Bahnen-3686018.html", "linkText": "Berlin: Multi-Millionen-Programm für Videoüberwachung in S-Bahnen" },
        { "sourceText": "2017-04-12 | heise online", "href": "https://www.heise.de/newsticker/meldung/Berliner-Test-fuer-Videoueberwachung-mit-Gesichtserkennung-soll-bald-starten-3684006.html", "linkText": "Berliner Test für Videoüberwachung mit Gesichtserkennung soll bald starten" },
        { "sourceText": "2017-04-12 | netzpolitik.org", "href": "https://netzpolitik.org/2017/projekt-sicherheitsbahnhof-intelligente-videoueberwachung-am-berliner-suedkreuz-startet-im-herbst/", "linkText": "„Projekt Sicherheitsbahnhof“: Intelligente Videoüberwachung am Berliner Südkreuz startet im Herbst" },
        { "sourceText": "2017-04-11 | heise online", "href": "https://www.heise.de/newsticker/meldung/Fuer-gezielte-Werbung-Deutsche-Post-testet-Displays-mit-Gesichtserkennung-3682944.html", "linkText": "Für gezielte Werbung: Deutsche Post testet Displays mit Gesichtserkennung" },
        { "sourceText": "2017-04-11 | netzpolitik.org", "href": "https://netzpolitik.org/2017/berliner-jahresbericht-datenschutz-private-alltagsdaten-in-unternehmen-und-verwaltung/", "linkText": "Berliner Jahresbericht Datenschutz: Private Alltagsdaten in Unternehmen und Verwaltung" },
        { "sourceText": "2017-04-11 | heise online", "href": "https://www.heise.de/newsticker/meldung/Bodycam-Test-der-NRW-Polizei-Datenschuetzerin-fordert-Waffengleichheit-3682429.html", "linkText": "Bodycam-Test der NRW-Polizei: Datenschützerin fordert „Waffengleichheit“" },
        { "sourceText": "2017-04-09 | heise online", "href": "https://www.heise.de/newsticker/meldung/US-Regierung-will-Drohnen-mit-Gesichtserkennung-an-der-Grenze-einsetzen-3678966.html", "linkText": "US-Regierung will Drohnen mit Gesichtserkennung an der Grenze einsetzen" },
        { "sourceText": "2017-04-06 | Digitalcourage e.V.", "href": "https://digitalcourage.de/blog/2017/ueberwachung-ist-nicht-sicherheit-ueberwachung-ist-ueberwachung", "linkText": "Überwachung ist nicht Sicherheit. Überwachung ist Überwachung." },
        { "sourceText": "2017-04-01 | heise online", "href": "https://www.heise.de/newsticker/meldung/Goettinger-Erklaerung-Datenschuetzer-legen-sich-mit-Merkel-Co-an-3673060.html", "linkText": "Göttinger Erklärung: Datenschützer legen sich mit Merkel & Co. an" },
        { "sourceText": "2017-03-31 | netzpolitik.org", "href": "https://netzpolitik.org/2017/digitalisierung-bitte-nur-mit-datenschutz/", "linkText": "Digitalisierung: Bitte nur mit Datenschutz!" },
        { "sourceText": "2017-03-31 | heise online", "href": "https://www.heise.de/newsticker/meldung/Bundesrat-stellt-sich-hinter-den-Ausbau-der-Videoueberwachung-3672286.html", "linkText": "Bundesrat stellt sich hinter den Ausbau der Videoüberwachung" },
        { "sourceText": "2017-03-23 | netzpolitik.org", "href": "https://netzpolitik.org/2017/ueberwachungslabor-berlin-suedkreuz-tracking-und-gesichtserkennung-geplant/", "linkText": "Überwachungslabor Berlin-Südkreuz: Tracking und Gesichtserkennung geplant" },
        { "sourceText": "2017-03-21 | heise online", "href": "https://www.heise.de/newsticker/meldung/Mobile-Ueberwachung-BKA-testet-automatisierte-biometrische-Gesichtserkennung-3660894.html", "linkText": "Mobile Überwachung: BKA testet automatisierte biometrische Gesichtserkennung" },
        { "sourceText": "2017-03-21 | Bauwelt", "href": "http://www.bauwelt.de/das-heft/heftarchiv/Festung-London-2782486.html", "linkText": "Festung London" },
        { "sourceText": "2017-03-16 | Bauwelt", "href": "http://www.bauwelt.de/themen/betrifft/Angst-ist-keine-gute-Stadtplanerin-2782530.html", "linkText": "Angst ist keine gute Stadtplanerin" },
        { "sourceText": "2017-03-10 | netzpolitik.org", "href": "https://netzpolitik.org/2017/bundestag-beschliesst-ausbau-der-videoueberwachung-kennzeichen-scanner-und-bodycams-fuer-die-bundespolizei/", "linkText": "Bundestag beschließt Ausbau der Videoüberwachung, Kennzeichen-Scanner und Bodycams für die Bundespolizei" },
        { "sourceText": "2017-03-10 | heise online", "href": "https://www.heise.de/newsticker/meldung/Bundestag-genehmigt-Ausbau-der-Videoueberwachung-3648846.html", "linkText": "Bundestag genehmigt Ausbau der Videoüberwachung" },
        { "sourceText": "2017-03-09 | heise online", "href": "https://www.heise.de/newsticker/meldung/185-000-unsichere-Webcams-koennten-Hackern-private-Einblicke-gewaehren-3648458.html", "linkText": "185.000 unsichere Webcams könnten Hackern private Einblicke gewähren" },
        { "sourceText": "2017-03-07 | netzpolitik.org", "href": "https://netzpolitik.org/2017/lass-dich-ueberwachen-die-neue-informationelle-sozialpflichtigkeit/", "linkText": "Lass Dich überwachen: Die neue „informationelle Sozialpflichtigkeit“" },
        { "sourceText": "2017-02-24 | heise online", "href": "https://www.heise.de/newsticker/meldung/Videoueberwachung-Harte-Kritik-an-bayerischem-Gefaehrder-Gesetz-3634576.html", "linkText": "Videoüberwachung: Harte Kritik an bayerischem Gefährder-Gesetz" },
        { "sourceText": "2017-02-24 | netzpolitik.org", "href": "https://netzpolitik.org/2017/berliner-datenschuetzerin-gegen-intelligente-videoueberwachung/", "linkText": "Berliner Datenschützerin gegen „intelligente“ Videoüberwachung" },
        { "sourceText": "2017-02-24 | heise online", "href": "https://www.heise.de/newsticker/meldung/Datenschuetzerin-warnt-vor-Videoueberwachung-mit-Gesichtserkennung-3634544.html", "linkText": "Datenschützerin warnt vor Videoüberwachung mit Gesichtserkennung" },
        { "sourceText": "2017-02-24 | heise online", "href": "https://www.heise.de/newsticker/meldung/San-Diego-verwanzt-sich-3633905.html", "linkText": "San Diego verwanzt sich" },
        { "sourceText": "2017-02-23 | Digitalcourage e.V.", "href": "https://digitalcourage.de/blog/2017/erste-u-bahnhaltestelle-mit-ehrlichen-hinweisen-zu-videoueberwachung", "linkText": "Erste U-Bahnhaltestelle mit ehrlichen Hinweisen zu Videoüberwachung" },
        { "sourceText": "2017-02-23 | heise online", "href": "https://www.heise.de/newsticker/meldung/Europaeischer-Polizeikongress-Intelligente-Videoanalyse-fuer-mehr-Sicherheit-3633397.html", "linkText": "Europäischer Polizeikongress: Intelligente Videoanalyse für mehr Sicherheit" },
        { "sourceText": "2017-02-22 | Digitalcourage e.V.", "href": "https://digitalcourage.de/blog/2017/kamera-laeuft-bitte-laecheln", "linkText": "Kamera läuft – bitte lächeln!" },
        { "sourceText": "2017-02-20 | netzpolitik.org", "href": "https://netzpolitik.org/2017/bahn-testet-in-berlin-videoueberwachung-mit-gesichtserkennung-und-bewegungsmustern/", "linkText": "Bahn testet in Berlin Videoüberwachung mit Bewegungsmuster- und Gesichtserkennung" },
        { "sourceText": "2017-02-20 | heise online", "href": "https://www.heise.de/newsticker/meldung/Deutsche-Bahn-will-intelligente-Videoueberwachung-testen-3631191.html", "linkText": "Deutsche Bahn will intelligente Videoüberwachung testen" },
        { "sourceText": "2017-02-20 | TELEPOLIS", "href": "https://www.heise.de/tp/features/Bundespolizei-und-BKA-testen-neue-Verfahren-zur-Gesichtserkennung-3630770.html", "linkText": "Bundespolizei und BKA testen neue Verfahren zur Gesichtserkennung" },
        { "sourceText": "2017-02-12 | heise online", "href": "https://www.heise.de/newsticker/meldung/Pilotprojekt-Britische-Lehrer-tragen-Body-Cams-3622814.html", "linkText": "Pilotprojekt: Britische Lehrer tragen Body-Cams" },
        { "sourceText": "2017-02-10 | heise online", "href": "https://www.heise.de/newsticker/meldung/Bundesrat-hat-keine-Einwaende-gegen-mehr-Videoueberwachung-und-Body-cams-3622492.html", "linkText": "Bundesrat hat keine Einwände gegen mehr Videoüberwachung und Body-Cams" },
        { "sourceText": "2017-02-10 | netzpolitik.org", "href": "https://netzpolitik.org/2017/bundesrat-gibt-gruenes-licht-fuer-mehr-videoueberwachung/", "linkText": "Bundesrat gibt grünes Licht für mehr Videoüberwachung" },
        { "sourceText": "2017-02-10 | Digitale Gesellschaft", "href": "https://digitalegesellschaft.de/2017/02/pm-bundesrat-videoueberwachung/", "linkText": "Videoüberwachung: Bundesrat gibt grünes Licht für Sicherheitsplacebo" },
        { "sourceText": "2017-02-08 | heise online", "href": "https://www.heise.de/newsticker/meldung/Datenschutzbeauftragte-Niedersaechsische-Polizei-testet-Bodycams-rechtswidrig-3620328.html", "linkText": "Datenschutzbeauftragte: Niedersächsische Polizei testet Bodycams rechtswidrig" },
        { "sourceText": "2017-02-08 | netzpolitik.org", "href": "https://netzpolitik.org/2017/grossbritannien-testet-bodycams-gegen-schueler/", "linkText": "Großbritannien testet Bodycams gegen Schüler" },
        { "sourceText": "2017-01-31 | heise online", "href": "https://www.heise.de/newsticker/meldung/Bayerischer-Datenschutzbeauftragter-verschaerft-Kontrolle-der-Videoueberwachung-3612110.html", "linkText": "Bayerischer Datenschutzbeauftragter verschärft Kontrolle der Videoüberwachung" },
        { "sourceText": "2017-01-30 | netzpolitik.org", "href": "https://netzpolitik.org/2017/vorratsdatenspeicherung-neu-oesterreich-erweitert-ueberwachungspaket/", "linkText": "Vorratsdatenspeicherung neu: Österreich erweitert Überwachungspaket" },
        { "sourceText": "2017-01-29 | heise online", "href": "https://www.heise.de/newsticker/meldung/Videoueberwachung-in-Washington-D-C-war-Trojaner-infiziert-3609833.html", "linkText": "Videoüberwachung in Washington D.C. war Trojaner-infiziert" },
        { "sourceText": "2017-01-28 | heise online", "href": "https://www.heise.de/newsticker/meldung/Wofuer-Kfz-Kennzeichen-von-der-Polizei-erfasst-werden-3609732.html", "linkText": "Wofür Kfz-Kennzeichen von der Polizei erfasst werden" },
        { "sourceText": "2017-01-27 | netzpolitik.org", "href": "https://netzpolitik.org/2017/bundespolizei-soll-kfz-kennzeichen-an-grenzen-automatisch-erfassen/", "linkText": "Bundespolizei soll Kfz-Kennzeichen an Grenzen automatisch erfassen" },
        { "sourceText": "2017-01-26 | netzpolitik.org", "href": "https://netzpolitik.org/2017/bundestag-beraet-ausbau-der-videoueberwachung/", "linkText": "Bundestag berät Ausbau der Videoüberwachung" },
        { "sourceText": "2017-01-25 | Technology Review", "href": "https://www.heise.de/tr/artikel/Die-Schutzbrille-3605160.html", "linkText": "Die Schutzbrille" },
        { "sourceText": "2017-01-20 | Technology Review", "href": "https://www.heise.de/tr/artikel/Tarnkleidung-gegen-Gesichtserkennung-3601764.html", "linkText": "Tarnkleidung gegen Gesichtserkennung" },
        { "sourceText": "2017-01-15 | TELEPOLIS", "href": "https://www.heise.de/tp/features/Mode-als-Tarnung-fuer-die-Massenueberwachung-des-oeffentlichen-Raums-3588879.html", "linkText": "Mode als Tarnung für die Massenüberwachung des öffentlichen Raums?" },
        { "sourceText": "2017-01-09 | netzpolitik.org", "href": "https://netzpolitik.org/2017/berliner-spd-unrechtmaessige-videoueberwachung-vor-parteizentrale/", "linkText": "Berliner SPD: Unrechtmäßige Videoüberwachung vor Parteizentrale" },
        { "sourceText": "2017-01-09 | TELEPOLIS", "href": "https://www.heise.de/tp/features/Ich-Opfer-gegen-Videoueberwachung-3591026.html", "linkText": "Ich, Opfer, gegen Videoüberwachung" },
        { "sourceText": "2017-01-06 | netzpolitik.org", "href": "https://netzpolitik.org/2017/berliner-spd-will-videoueberwachung-ausbauen-und-stellt-sich-damit-gegen-koalitionspartner/", "linkText": "Berliner SPD-Innensenator will Videoüberwachung ausbauen – und stellt sich damit gegen Koalitionspartner" },
        { "sourceText": "2017-01-05 | heise online", "href": "https://www.heise.de/newsticker/meldung/Oesterreichs-Innenminister-fordert-lueckenlose-Ueberwachung-3589540.html", "linkText": "Österreichs Innenminister fordert lückenlose Überwachung" },
        { "sourceText": "2017-01-04 | netzpolitik.org", "href": "https://netzpolitik.org/2017/oesterreichs-innenminister-will-in-allen-fragen-eine-lueckenlose-ueberwachung/", "linkText": "Österreichs Innenminister will „in allen Fragen eine lückenlose Überwachung“" },
        { "sourceText": "2017-01-04 | TELEPOLIS", "href": "https://www.heise.de/tp/features/Videoueberwachung-und-Demokratie-3587282.html", "linkText": "Videoüberwachung und Demokratie" },
        { "sourceText": "2017-01-03 | netzpolitik.org", "href": "https://netzpolitik.org/2017/bundesregierung-bislang-keine-anschlaege-mit-videoueberwachung-verhindert/", "linkText": "Bundesregierung: Bislang keine Anschläge mit Videoüberwachung verhindert" }
      ] },
      { "sectionTitle": "sect-2016", "isExpandable": true, "isExpandedByDefault": false, "listEntries": [
        { "sourceText": "2016-12-26 | heise online", "href": "https://www.heise.de/newsticker/meldung/Nach-Berliner-Lkw-Attentat-Deutsche-angeblich-fuer-mehr-Ueberwachung-3581914.html", "linkText": "Nach Berliner Lkw-Attentat: Deutsche angeblich für mehr Überwachung" },
        { "sourceText": "2016-12-21 | TELEPOLIS", "href": "https://www.heise.de/tp/features/Bundeskabinett-Alles-ueberwachen-3579590.html", "linkText": "Bundeskabinett: Alles überwachen" },
        { "sourceText": "2016-12-21 | netzpolitik.org", "href": "https://netzpolitik.org/2016/bundeskabinett-beschliesst-mehr-videoueberwachung-und-kennzeichen-scanner/", "linkText": "Bundeskabinett beschließt mehr Videoüberwachung und Kennzeichen-Scanner" },
        { "sourceText": "2016-12-21 | heise online", "href": "https://www.heise.de/newsticker/meldung/Bundesregierung-will-Videoueberwachung-deutlich-ausweiten-3579268.html", "linkText": "Bundesregierung will Videoüberwachung deutlich ausweiten" },
        { "sourceText": "2016-12-21 | netzpolitik.org", "href": "https://netzpolitik.org/2016/jahresrueckblick-der-ausbau-des-ueberwachungsstaates-2016/", "linkText": "Jahresrückblick: Der Ausbau des Überwachungsstaates 2016" },
        { "sourceText": "2016-12-14 | heise online", "href": "https://www.heise.de/newsticker/meldung/Bericht-Ueberwachungskameras-mit-NSA-Hintertuer-weiter-vielerorts-im-Einsatz-3569958.html", "linkText": "Bericht: Überwachungskameras mit NSA-Hintertür weiter vielerorts im Einsatz" },
        { "sourceText": "2016-12-14 | netzpolitik.org", "href": "https://netzpolitik.org/2016/bitte-laecheln-interpol-startet-neue-datenbank-zur-gesichtserkennung/", "linkText": "Bitte lächeln: Interpol startet neue Datenbank zur Gesichtserkennung" },
        { "sourceText": "2016-12-06 | heise online", "href": "https://www.heise.de/newsticker/meldung/Backdoor-in-IP-Kameras-von-Sony-3561180.html", "linkText": "Backdoor in IP-Kameras von Sony" },
        { "sourceText": "2016-11-30 | netzpolitik.org", "href": "https://netzpolitik.org/2016/was-passiert-eigentlich-wenn-32-videokameras-einen-u-bahn-waggon-ueberwachen/", "linkText": "Was passiert eigentlich, wenn 32 Videokameras einen U-Bahn-Waggon überwachen?" },
        { "sourceText": "2016-11-24 | netzpolitik.org", "href": "https://netzpolitik.org/2016/neues-bundesdatenschutzgesetz-weniger-kontrolle-weniger-auskunftsansprueche-mehr-videoueberwachung/", "linkText": "Neues Bundesdatenschutzgesetz: Weniger Kontrolle, weniger Auskunftsansprüche, mehr Videoüberwachung" },
        { "sourceText": "2016-11-18 | netzpolitik.org", "href": "https://netzpolitik.org/2016/millioneninvestitionen-in-videoueberwachung-auf-kleinen-bahnhoefen/", "linkText": "Millioneninvestitionen in Videoüberwachung auf kleinen Bahnhöfen" },
        { "sourceText": "2016-11-14 | netzpolitik.org", "href": "https://netzpolitik.org/2016/weltkarte-der-videoueberwachung-sucht-uebersetzer/", "linkText": "Weltkarte der Videoüberwachung sucht Übersetzer" },
        { "sourceText": "2016-11-11 | netzpolitik.org", "href": "https://netzpolitik.org/2016/innenministerium-will-videoueberwachung-in-diskotheken-erleichtern/", "linkText": "Innenministerium will Videoüberwachung in Diskotheken erleichtern" },
        { "sourceText": "2016-11-11 | Digitale Gesellschaft", "href": "https://digitalegesellschaft.de/2016/11/videoueberwachung-anhoerung/", "linkText": "Mehr Videoüberwachung: Innenministerium führt Anhörung zu Referentenentwurf durch" },
        { "sourceText": "2016-11-11 | heise online", "href": "https://www.heise.de/newsticker/meldung/Mehr-Videoueberwachung-und-Fussfesseln-fuer-Extremisten-Koalition-schnuert-neues-Sicherheitspaket-3463972.html", "linkText": "Mehr Videoüberwachung und Fußfesseln für Extremisten: Koalition schnürt neues Sicherheitspaket" },
        { "sourceText": "2016-11-07 | netzpolitik.org", "href": "https://netzpolitik.org/2016/stellungnahme-zur-vorratsvideosammlung-verfassungsrechtlich-bedenklich/", "linkText": "Stellungnahme zur Vorratsvideosammlung: „Verfassungsrechtlich bedenklich“" },
        { "sourceText": "2016-11-07 | heise online", "href": "https://www.heise.de/newsticker/meldung/Datenschuetzer-protestieren-gegen-de-Maizieres-Plan-fuer-mehr-Videoueberwachung-3457955.html", "linkText": "Datenschützer protestieren gegen de Maizières Plan für mehr Videoüberwachung" },
        { "sourceText": "2016-11-07 | netzpolitik.org", "href": "https://netzpolitik.org/2016/forscher-ueberlisten-gesichtserkennungssysteme-mit-bunten-brillen/", "linkText": "Forscher überlisten Gesichtserkennungssysteme mit bunten Brillen" },
        { "sourceText": "2016-10-27 | netzpolitik.org", "href": "https://netzpolitik.org/2016/intelligente-videoueberwachung-regierung-will-folgen-der-grundrechtseingriffe-spaeter-reflektieren-vielleicht/", "linkText": "Intelligente Videoüberwachung: Regierung will Folgen der Grundrechtseingriffe später reflektieren – vielleicht." },
        { "sourceText": "2016-10-27 | Digitale Gesellschaft", "href": "https://digitalegesellschaft.de/2016/10/videoueberwachung-weniger-grundrechte/", "linkText": "Ausweitung der Videoüberwachung: Nicht mehr Sicherheit, sondern weniger Grundrechte" },
        { "sourceText": "2016-10-26 | heise online", "href": "https://www.heise.de/newsticker/meldung/Streit-ueber-de-Maizieres-Plaene-fuer-mehr-Videoueberwachung-3361291.html", "linkText": "Streit über de Maizières Pläne für mehr Videoüberwachung" },
        { "sourceText": "2016-10-26 | netzpolitik.org", "href": "https://netzpolitik.org/2016/mehr-videoueberwachung-minister-de-maiziere-plant-gesetzesaenderung/", "linkText": "Mehr Videoüberwachung: Minister de Maizière plant Gesetzesänderung" },
        { "sourceText": "2016-10-20 | heise online", "href": "https://www.heise.de/newsticker/meldung/USA-Haelfte-der-Buerger-fuer-Gesichtserkennung-erfasst-3355185.html", "linkText": "USA: Hälfte der Bürger für Gesichtserkennung erfasst" },
        { "sourceText": "2016-09-27 | netzpolitik.org", "href": "https://netzpolitik.org/2016/bnd-wusste-von-amerikanischen-hintertueren-in-hochsicherheitskameras-und-schwieg/", "linkText": "Hintertüren in Kameras: BND leistet Beihilfe zu NSA-Spionage" },
        { "sourceText": "2016-09-15 | netzpolitik.org", "href": "https://netzpolitik.org/2016/videoueberwachung-mit-gesichtserkennung-gesetzliche-grundlage-vollkommen-unklar/", "linkText": "Videoüberwachung mit Gesichtserkennung: Gesetzliche Grundlage vollkommen unklar" },
        { "sourceText": "2016-09-06 | netzpolitik.org", "href": "https://netzpolitik.org/2016/das-oktoberfest-ruestet-auf-ueberwacht-is/", "linkText": "Das Oktoberfest rüstet auf: Überwacht is!" },
        { "sourceText": "2016-08-31 | netzpolitik.org", "href": "https://netzpolitik.org/2016/abgeordnetenhauswahl-cdu-afd-und-spd-wollen-mehrheitlich-ausbau-der-videoueberwachung-in-berlin/", "linkText": "Abgeordnetenhauswahl: CDU, AfD und SPD wollen mehrheitlich Ausbau der Videoüberwachung in Berlin" },
        { "sourceText": "2016-08-22 | netzpolitik.org", "href": "https://netzpolitik.org/2016/projektgruppe-arbeitet-schon-an-kameraueberwachung-mit-automatisierter-gesichtserkennung-an-bahnhoefen/", "linkText": "Projektgruppe arbeitet schon an Kameraüberwachung mit automatisierter Gesichtserkennung an Bahnhöfen" },
        { "sourceText": "2016-08-21 | heise online", "href": "https://www.heise.de/newsticker/meldung/Anti-Terror-Massnahmen-De-Maiziere-will-Gesichtserkennung-im-Bahnhof-3301256.html", "linkText": "Anti-Terror-Maßnahmen: De Maizière will Gesichtserkennung im Bahnhof" },
        { "sourceText": "2016-08-19 | netzpolitik.org", "href": "https://netzpolitik.org/2016/berliner-erklaerung-innenminister-der-union-fordern-drastische-ausweitung-der-vorratsdatenspeicherung/", "linkText": "Berliner Erklärung: Innenminister der Union fordern drastische Ausweitung der Vorratsdatenspeicherung" },
        { "sourceText": "2016-08-15 | netzpolitik.org", "href": "https://netzpolitik.org/2016/datenschuetzer-zu-kameraueberwachungsplaenen-auch-innenminister-muessen-sich-an-gesetze-halten/", "linkText": "Datenschützer zu Kameraüberwachungsplänen: Auch Innenminister müssen sich an Gesetze halten" },
        { "sourceText": "2016-08-10 | netzpolitik.org", "href": "https://netzpolitik.org/2016/eine-weltkarte-der-videoueberwachung/", "linkText": "Eine Weltkarte der Videoüberwachung" },
        { "sourceText": "2016-07-06 | netzpolitik.org", "href": "https://netzpolitik.org/2016/berliner-senat-intelligente-videotechnik-vor-fuenf-jahren-am-kottbusser-tor-aber-noch-nicht-am-suedkreuz/", "linkText": "Berliner Senat: „Intelligente Videotechnik“ vor fünf Jahren am Kottbusser Tor, aber noch nicht am Südkreuz" },
        { "sourceText": "2016-06-29 | netzpolitik.org", "href": "https://netzpolitik.org/2016/berlin-ausweitung-der-videoueberwachung-vom-tisch/", "linkText": "Berlin: Ausweitung der Videoüberwachung vom Tisch" },
        { "sourceText": "2016-06-28 | heise online", "href": "https://www.heise.de/newsticker/meldung/Datenschuetzer-Viele-Strand-Webcams-im-Norden-falsch-eingestellt-3250506.html", "linkText": "Datenschützer: Viele Strand-Webcams im Norden falsch eingestellt" },
        { "sourceText": "2016-06-23 | netzpolitik.org", "href": "https://netzpolitik.org/2016/polizeiliche-videoueberwachung-fuer-berlin-mit-der-idee-des-rechtsstaats-ist-das-schon-schwerlich-kompatibel/", "linkText": "Polizeiliche Videoüberwachung in Berlin? „Mit der Idee des Rechtsstaats ist das schon schwerlich kompatibel.“" },
        { "sourceText": "2016-06-22 | netzpolitik.org", "href": "https://netzpolitik.org/2016/videoueberwachungsplaene-des-berliner-senats-die-zeit-wird-knapp-und-die-rechtmaessigkeit-fehlt/", "linkText": "Videoüberwachungspläne des Berliner Senats: Die Zeit wird knapp und die Rechtmäßigkeit fehlt" },
        { "sourceText": "2016-06-20 | netzpolitik.org", "href": "https://netzpolitik.org/2016/berliner-datenschutzbeauftragte-geplante-ausweitung-der-videoueberwachung-waere-unverhaeltnismaessig/", "linkText": "Berliner Datenschutzbeauftragte: Geplante Ausweitung der Videoüberwachung wäre unverhältnismäßig" },
        { "sourceText": "2016-06-15 | netzpolitik.org", "href": "https://netzpolitik.org/2016/bald-auch-im-restaurant-berliner-senat-will-befugnisse-zur-videoueberwachung-an-gefaehrlichen-orten-ausweiten/", "linkText": "Bald auch im Restaurant: Berliner Senat will Befugnisse zur Videoüberwachung an „gefährlichen Orten“ ausweiten" },
        { "sourceText": "2016-06-09 | ndr.de", "href": "https://www.ndr.de/nachrichten/niedersachsen/hannover_weser-leinegebiet/Nur-jede-dritte-Kamera-in-Hannover-darf-bleiben,videoueberwachung172.html", "linkText": "Nur jede dritte Kamera in Hannover darf bleiben" },
        { "sourceText": "2016-05-12 | netzpolitik.org", "href": "https://netzpolitik.org/2016/lieber-nicht-rennen-oder-herumlungern-bundespolizei-erprobt-musterkennung-an-bahnhoefen/", "linkText": "An Bahnhöfen lieber nicht rennen oder herumlungern: Bundespolizei erprobt Videoüberwachung mit Mustererkennung" },
        { "sourceText": "2016-04-18 | netzpolitik.org", "href": "https://netzpolitik.org/2016/verkehrsminister-fordern-umfassende-videoueberwachung-im-oepnv/", "linkText": "Verkehrsminister fordern umfassende Videoüberwachung im ÖPNV" },
        { "sourceText": "2016-02-12 | netzpolitik.org", "href": "https://netzpolitik.org/2016/ausweitung-statt-evaluierung-berliner-senat-und-die-videoueberwachung/", "linkText": "Ausweitung statt Evaluierung: Der Berliner Senat und die Videoüberwachung" }
      ] }
    ]
  }
]
